<svg width="206" height="60" viewBox="0 0 206 60" fill="none" xmlns="http://www.w3.org/2000/svg">
<g clip-path="url(#clip0)">
<path d="M179.898 29.7004C179.762 29.7095 179.654 29.7379 179.554 29.7205C179.317 29.6802 179.246 29.5088 179.338 29.2788C179.415 29.0864 179.449 28.8729 179.548 28.6942C179.635 28.5366 179.786 28.4147 179.861 28.2003C179.756 28.2296 179.641 28.2406 179.548 28.2919C179.384 28.3817 179.243 28.5146 179.077 28.5943C178.828 28.7125 178.739 28.5073 178.616 28.3286C178.906 27.9538 179.294 27.7183 179.747 27.4132C179.559 27.3884 179.452 27.3628 179.344 27.3609C179.024 27.3554 178.704 27.3719 178.385 27.3527C178.247 27.3444 178.116 27.2583 177.977 27.2281C177.817 27.1933 177.652 27.1612 177.489 27.1603C176.947 27.1584 176.442 27.0384 175.977 26.7525C175.906 26.7085 175.809 26.7039 175.722 26.681C175.722 26.5564 175.722 26.4556 175.722 26.3621C176.264 26.1651 176.759 26.4519 177.28 26.4244C176.983 26.2897 176.687 26.1541 176.344 25.9984C176.648 25.7867 176.95 25.9003 177.229 25.8792C177.508 25.8582 177.789 25.8646 178.178 25.8572C177.919 25.6327 177.561 25.641 177.632 25.2616C177.927 25.2524 178.21 25.1654 178.493 25.3716C178.754 25.5622 178.866 25.2561 179.019 25.1645C178.83 24.9354 178.648 24.7146 178.458 24.4836C178.827 24.2729 179.056 24.5652 179.285 24.688C179.508 24.8062 179.671 24.7934 179.876 24.7201C180.012 24.6706 180.153 24.6257 180.295 24.6073C180.445 24.5881 180.6 24.6018 180.751 24.6028C181.246 24.6046 181.739 24.6019 182.204 24.3489C182.204 24.2711 182.235 24.1666 182.198 24.0979C182.049 23.8193 182.108 23.4793 181.996 23.2292C181.844 22.8883 181.878 22.5135 181.68 22.1818C181.458 21.8107 181.38 21.3553 181.186 20.9631C180.902 20.3876 180.592 19.8268 180.228 19.2908C179.585 18.3451 178.717 17.623 177.937 16.8148C177.099 15.9461 176.212 15.126 175.389 14.2436C175.018 13.8459 174.74 13.3565 174.444 12.8938C174.143 12.4237 173.875 11.9335 173.587 11.4542C173.232 10.8632 172.867 10.2795 172.518 9.6857C172.278 9.27518 172.014 8.88023 171.852 8.4239C171.732 8.08577 171.514 7.78429 171.373 7.45166C171.231 7.11628 171.056 6.78915 171.035 6.4107C171.029 6.29249 170.982 6.17704 170.951 6.06066C170.909 5.90213 170.845 5.74727 170.826 5.586C170.796 5.33126 170.825 5.07102 170.651 4.8456C170.603 4.78329 170.613 4.66966 170.61 4.57894C170.603 4.2454 170.621 3.91368 170.441 3.60396C170.386 3.50958 170.415 3.36571 170.41 3.24384C170.392 2.83973 170.355 2.44662 170.267 2.0416C170.159 1.54403 170.091 0.988729 170.358 0.480161C170.417 0.367452 170.424 0.228168 170.482 0C170.619 0.261156 170.732 0.432512 170.803 0.619445C170.976 1.0712 171.091 1.54953 171.301 1.98204C171.548 2.48786 171.777 3.00101 172.082 3.483C172.554 4.22798 173.14 4.86301 173.77 5.46229C174.179 5.85174 174.595 6.23568 175.074 6.54632C175.687 6.94401 176.274 7.38477 176.883 7.79071C177.371 8.11601 177.89 8.39732 178.369 8.73545C178.997 9.17896 179.618 9.62613 180.281 10.0211C180.828 10.3473 181.324 10.7578 181.853 11.1179C182.336 11.4478 182.83 11.763 183.323 12.0792C184.304 12.7069 185.308 13.3098 186.067 14.2152C186.434 14.6522 186.812 15.0793 187.141 15.5512C187.571 16.167 187.954 16.8047 188.288 17.4737C188.413 17.7238 188.482 18.0042 188.615 18.2489C188.744 18.4853 188.818 18.7281 188.874 18.9884C188.908 19.146 189.119 19.1634 189.221 19.0223C189.515 18.6172 189.778 18.1875 190.089 17.798C190.428 17.3756 190.803 16.9825 191.173 16.5857C191.925 15.7775 192.836 15.1572 193.717 14.5111C194.329 14.0621 194.967 13.6369 195.617 13.2402C196.088 12.9524 196.61 12.749 197.106 12.5025C197.569 12.2725 198.029 12.0398 198.487 11.8006C199.082 11.49 199.687 11.1977 200.261 10.8513C200.822 10.5122 201.369 10.142 201.885 9.73793C202.347 9.37689 202.772 8.96454 203.188 8.54852C203.539 8.19756 203.807 7.77971 204.068 7.35178C204.328 6.92385 204.503 6.46752 204.708 6.01851C204.843 5.72253 205.083 5.45221 205.43 5.34683C205.462 5.37616 205.502 5.39632 205.502 5.41648C205.505 6.0854 205.505 6.75525 205.505 7.42417C205.239 7.7733 205.37 8.22963 205.162 8.61541C204.984 8.94438 204.985 9.36589 204.881 9.73884C204.779 10.1063 204.638 10.4628 204.523 10.8265C204.429 11.1253 204.373 11.4368 204.258 11.7264C204.086 12.1607 203.881 12.5813 203.684 13.0056C203.513 13.374 203.371 13.7634 203.151 14.1006C202.717 14.765 202.281 15.4321 201.705 15.991C201.133 16.5463 200.49 17.0137 199.803 17.4068C199.113 17.8008 198.384 18.1252 197.682 18.4981C197.382 18.6576 197.122 18.894 196.817 19.0415C196.052 19.4126 195.439 19.9753 194.836 20.5526C194.591 20.7871 194.362 21.0391 194.137 21.293C194.095 21.3406 194.109 21.4368 194.091 21.5459C194.282 21.5788 194.465 21.6549 194.634 21.6311C195.135 21.5587 195.579 21.7777 196.039 21.8858C196.404 21.972 196.75 22.1662 197.084 22.3504C197.389 22.5181 197.666 22.7371 197.957 22.9323C198.276 23.1467 198.542 23.406 198.741 23.7423C198.928 24.0557 199.13 24.3499 199.545 24.4351C199.761 24.48 199.959 24.6431 200.153 24.7714C200.468 24.9775 200.464 24.984 200.431 25.4366C200.324 25.4522 200.209 25.4825 200.095 25.4834C199.715 25.4889 199.333 25.4825 198.953 25.4825C198.847 25.4825 198.714 25.4467 198.639 25.4971C198.252 25.7546 197.797 25.6025 197.404 25.7234C196.975 25.8545 196.525 25.7968 196.123 25.9205C195.638 26.0698 195.197 26.3695 194.752 26.6279C194.314 26.8817 193.906 27.1868 193.426 27.3701C193.239 27.4416 193.056 27.535 192.886 27.6423C192.599 27.8246 192.291 27.9346 191.962 28.0216C191.671 28.0986 191.402 28.259 191.123 28.3836C191.096 28.3955 191.069 28.4138 191.04 28.4193C190.663 28.4954 190.286 28.5687 189.909 28.6466C189.807 28.6676 189.707 28.697 189.608 28.7309C189.537 28.7547 189.473 28.8097 189.4 28.8216C188.881 28.9086 188.363 29.0305 187.839 29.0608C187.111 29.1029 186.378 29.0818 185.648 29.0708C185.489 29.069 185.333 28.9939 185.175 28.9572C185.043 28.9261 184.908 28.9068 184.777 28.8738C184.589 28.8262 184.403 28.7694 184.214 28.7199C184.1 28.6896 183.982 28.6704 183.868 28.6392C183.728 28.6007 183.59 28.5549 183.451 28.511C183.408 28.4972 183.365 28.4606 183.325 28.4642C182.879 28.5009 182.468 28.3313 182.043 28.2461C181.811 28.1994 181.584 28.1243 181.352 28.0766C181.257 28.0574 181.115 28.0363 181.059 28.0876C180.622 28.4798 180.22 28.905 179.957 29.4401C179.921 29.5006 179.921 29.5831 179.898 29.7004Z" fill="#0041DB"/>
<path d="M138.101 41.7905C138.088 41.9151 138.064 42.0406 138.065 42.1671C138.071 42.945 138.014 43.7303 138.106 44.4982C138.338 46.44 138.224 48.3844 138.25 50.328C138.276 52.2798 138.256 54.2325 138.256 56.1843C138.256 56.3667 138.256 56.549 138.256 56.724C137.903 56.8221 134.533 56.8377 134.036 56.7451C134.036 49.9275 134.036 43.1045 134.036 36.2246C135.855 36.1953 137.643 36.2145 139.388 36.209C139.806 36.921 140.191 37.5634 140.561 38.2149C141.008 39.0011 141.435 39.7965 141.877 40.5855C142.506 41.7089 143.15 42.8241 143.767 43.9539C144.329 44.983 144.885 46.0175 145.404 47.0695C145.745 47.7604 146.011 48.488 146.32 49.1954C146.475 49.55 146.65 49.8955 146.854 50.3234C146.903 50.1704 146.954 50.0842 146.952 49.999C146.94 49.2678 146.996 48.5237 146.883 47.8071C146.634 46.2164 146.757 44.6219 146.728 43.0303C146.691 40.9566 146.719 38.882 146.719 36.8083C146.719 36.6306 146.719 36.4528 146.719 36.2429C148.146 36.2429 149.508 36.2429 150.868 36.2429C150.883 36.2585 150.894 36.2695 150.904 36.2814C150.913 36.2924 150.929 36.3043 150.93 36.3172C150.941 36.407 150.958 36.4977 150.958 36.5884C150.958 43.2685 150.956 49.9477 150.952 56.6278C150.952 56.67 150.929 56.7121 150.909 56.7772C149.331 56.7772 147.752 56.7772 146.11 56.7772C145.918 56.461 145.695 56.111 145.489 55.7518C145.069 55.0205 144.655 54.2856 144.246 53.5489C143.879 52.8891 143.525 52.2221 143.159 51.5623C142.665 50.6734 142.157 49.7938 141.671 48.9012C141.294 48.2103 140.937 47.5084 140.58 46.8065C140.03 45.728 139.476 44.6522 138.947 43.5636C138.669 42.9899 138.441 42.3916 138.188 41.8051C138.186 41.7969 138.162 41.7987 138.101 41.7905Z" fill="black"/>
<path d="M58.3087 45.289C57.7786 44.6815 57.3938 44.0172 57.1068 43.2988C56.9048 42.792 56.8006 42.2633 56.8171 41.7135C56.8317 41.226 56.8079 40.7348 56.8591 40.2519C56.8929 39.9303 57.0008 39.6077 57.1269 39.3072C57.5135 38.3853 58.1542 37.6605 58.9402 37.0567C59.2574 36.8129 59.5827 36.5875 59.9739 36.472C60.2015 36.4042 60.4172 36.2988 60.6411 36.2182C61.6364 35.8599 62.6729 35.7472 63.7102 35.881C65.2631 36.0808 66.6779 36.5967 67.6531 37.94C67.9437 38.3404 68.1366 38.7702 68.3011 39.2412C68.5689 40.0073 68.5095 40.7761 68.4455 41.5385C68.3925 42.1634 68.1211 42.748 67.7738 43.2832C67.1303 44.2728 66.2383 44.983 65.2338 45.5704C64.9697 45.7243 64.7183 45.9002 64.4268 46.0881C65.5071 47.294 66.5536 48.4651 67.6056 49.6325C67.814 49.8643 67.9346 49.8597 68.0607 49.6041C68.2883 49.1395 68.5113 48.6712 68.7033 48.1911C68.9126 47.6679 69.1127 47.1364 69.2653 46.5948C69.4125 46.0734 69.4948 45.5337 69.6072 44.9931C69.938 44.9023 73.2649 44.8868 73.7273 44.9802C73.7273 45.0819 73.7475 45.191 73.7237 45.289C73.6232 45.7115 73.5071 46.1293 73.402 46.5508C73.3005 46.9595 73.2247 47.3755 73.1031 47.7778C72.9752 48.2039 72.8289 48.6282 72.6498 49.035C72.4176 49.561 72.1526 50.0732 71.8884 50.5846C71.4927 51.3488 70.9928 52.0424 70.384 52.7325C70.586 52.9734 70.7889 53.2254 71.0019 53.4692C71.6417 54.2004 72.2814 54.9317 72.9295 55.6547C73.242 56.0038 73.5729 56.3355 73.9467 56.7286C73.7685 56.7634 73.6707 56.7992 73.5738 56.7992C71.9908 56.8028 70.4078 56.7992 68.8248 56.8056C68.6283 56.8065 68.4921 56.7451 68.3614 56.5976C68.09 56.2915 67.7984 56.0029 67.516 55.706C67.2729 55.4494 67.0965 55.4137 66.826 55.6336C66.3013 56.0597 65.678 56.2952 65.0739 56.5618C64.765 56.6984 64.3911 56.6901 64.0831 56.8285C63.5622 57.0622 63.0056 56.9311 62.4864 57.0539C62.0642 57.1538 61.6492 57.1987 61.2261 57.1703C60.9418 57.152 60.6594 57.0264 60.3797 57.0392C59.7939 57.0667 59.2226 56.9339 58.6944 56.7662C57.4431 56.3694 56.297 55.739 55.4973 54.6476C55.1609 54.1876 54.9032 53.6717 54.7021 53.1201C54.5358 52.6628 54.5605 52.1927 54.4462 51.7465C54.2817 51.1014 54.4526 50.481 54.5568 49.8836C54.6683 49.2467 54.9324 48.6254 55.3044 48.0445C55.7788 47.3041 56.3774 46.7139 57.0456 46.1779C57.3435 45.9387 57.6926 45.7637 58.0116 45.5511C58.1195 45.4815 58.2063 45.3825 58.3087 45.289ZM60.366 47.7824C59.3826 48.3817 58.7419 49.6627 58.7958 50.7064C58.8068 50.9099 58.9055 51.1078 58.9375 51.3121C59.0307 51.9132 59.3579 52.3833 59.7628 52.8067C60.4081 53.482 61.2599 53.7001 62.1382 53.7624C62.6062 53.7954 63.0988 53.6909 63.5585 53.5663C63.968 53.4554 64.3518 53.2456 64.7028 52.9863C64.9377 52.8122 64.9797 52.7013 64.7896 52.4915C64.5968 52.2789 64.3802 52.0883 64.1882 51.8748C63.0695 50.634 61.9591 49.3869 60.8367 48.1498C60.7005 48.0014 60.5168 47.8979 60.366 47.7824ZM64.499 40.8118C64.4825 40.4242 64.4442 40.054 64.265 39.6847C64.0329 39.2073 63.6335 38.9498 63.1884 38.8234C62.6701 38.6758 62.1583 38.8169 61.7059 39.1642C61.1447 39.594 60.9912 40.2079 60.9117 40.8457C60.8815 41.0849 61.0058 41.3396 61.0442 41.5907C61.1548 42.3146 61.5624 42.8882 61.9993 43.4353C62.2826 43.7899 62.3767 43.7899 62.7323 43.5095C63.065 43.2474 63.3547 42.9313 63.6828 42.6628C64.2696 42.179 64.5228 41.5595 64.499 40.8118Z" fill="black"/>
<path d="M48.361 27.9446C46.8612 27.9446 45.45 27.9446 43.9904 27.9446C43.973 27.7375 43.9438 27.546 43.9438 27.3545C43.941 24.7933 43.9557 22.2312 43.9301 19.6701C43.9246 19.0992 43.8378 18.5127 43.6787 17.9647C43.5261 17.4388 43.262 16.921 42.72 16.6635C42.2383 16.4345 41.7813 16.2915 41.1927 16.4849C40.3272 16.7689 39.9177 17.4076 39.5457 18.1297C39.5064 18.2067 39.5019 18.3065 39.4973 18.3973C39.4836 18.6557 39.4699 18.915 39.469 19.1743C39.4671 21.8427 39.4681 24.5111 39.4681 27.1794C39.4681 27.3013 39.4726 27.4241 39.4662 27.5451C39.4489 27.8539 39.3383 27.9593 39.0065 27.9638C38.5349 27.9702 38.0624 27.9657 37.5908 27.9657C36.7097 27.9657 35.8277 27.9657 34.8973 27.9657C34.8799 27.7522 34.8507 27.5616 34.8498 27.371C34.847 23.8641 34.8507 20.3573 34.8461 16.8505C34.8443 15.7527 34.8214 14.6559 34.8096 13.5581C34.8077 13.3803 34.8096 13.2016 34.8096 13.0009C36.1129 13.0009 37.355 13.0009 38.6098 13.0009C38.682 13.3171 38.7734 13.6314 38.8228 13.9521C38.8694 14.2572 38.8731 14.5697 38.9005 14.9573C39.2807 14.5725 39.5768 14.2462 39.9022 13.9512C40.4195 13.4802 41.0044 13.154 41.689 12.9359C42.6953 12.6161 43.7034 12.628 44.6978 12.792C45.567 12.935 46.3329 13.3941 46.9023 14.1051C47.1564 14.4231 47.3812 14.7649 47.6225 15.1012C48.0283 14.6962 48.393 14.2884 48.8034 13.9329C49.3198 13.4866 49.9029 13.1613 50.5664 12.9423C51.5974 12.6023 52.6338 12.65 53.6666 12.7948C54.1665 12.8653 54.6473 13.0917 55.0924 13.3803C55.8876 13.8971 56.4305 14.6293 56.7869 15.4677C57.0401 16.0643 57.2028 16.7084 57.3179 17.3691C57.5894 18.9315 57.4459 20.4938 57.4733 22.0553C57.5044 23.8238 57.4815 25.5923 57.4797 27.3609C57.4797 27.5405 57.4642 27.721 57.455 27.9272C57.3106 27.9418 57.1945 27.9638 57.0785 27.9638C55.861 27.9666 54.6427 27.9666 53.4253 27.9647C52.9245 27.9638 52.8559 27.8933 52.8559 27.3746C52.8541 24.8281 52.8568 22.2816 52.8541 19.7351C52.8541 19.3695 52.8714 18.9984 52.8203 18.6392C52.706 17.8355 52.4327 17.0667 51.6933 16.6571C51.2619 16.4189 50.7739 16.2512 50.1908 16.4784C49.7027 16.669 49.3252 16.9394 49.0136 17.3114C48.5858 17.8218 48.4295 18.4541 48.4113 19.1074C48.3893 19.8845 48.4058 20.6624 48.4058 21.4404C48.4058 23.3922 48.4067 25.344 48.404 27.2958C48.4021 27.5047 48.3765 27.7137 48.361 27.9446Z" fill="black"/>
<path d="M22.1392 27.951C20.6421 27.951 19.2291 27.951 17.8197 27.951C17.6251 27.7393 17.6644 27.4873 17.6644 27.2491C17.6616 24.7933 17.6497 22.3384 17.6717 19.8836C17.6772 19.2659 17.5986 18.663 17.4733 18.0729C17.3408 17.4452 16.9743 16.8908 16.3985 16.604C15.9653 16.3886 15.4507 16.1669 14.948 16.5243C14.0588 16.6929 13.6886 17.3994 13.3157 18.104C13.302 18.1297 13.2956 18.1618 13.2919 18.1911C13.2307 18.6997 13.121 19.2073 13.1174 19.7159C13.0991 22.2477 13.11 24.7786 13.1073 27.3105C13.1073 27.5167 13.0781 27.7238 13.0616 27.9446C11.5764 27.9446 10.1497 27.9446 8.67363 27.9446C8.65718 27.7476 8.62702 27.5561 8.62702 27.3645C8.62428 24.1619 8.62885 20.9593 8.62336 17.7567C8.62154 16.461 8.5996 15.1644 8.58863 13.8687C8.58589 13.5956 8.58863 13.3226 8.58863 12.9881C9.87368 12.9615 11.1286 12.9817 12.4063 12.9744C12.5032 13.6231 12.5955 14.2426 12.6978 14.9326C12.9026 14.7237 13.0799 14.5615 13.2362 14.3809C13.8412 13.68 14.5779 13.2199 15.4699 12.9304C16.478 12.6033 17.4925 12.6097 18.4805 12.8003C19.6395 13.0239 20.5635 13.6928 21.1329 14.7768C21.1923 14.8904 21.2892 14.9848 21.3522 15.0664C21.7727 14.6696 22.1556 14.26 22.587 13.9109C23.1025 13.4939 23.6591 13.1586 24.3108 12.9395C25.2531 12.6225 26.1999 12.6427 27.1413 12.7563C28.2408 12.8901 29.1612 13.4069 29.8458 14.3205C30.098 14.6577 30.3347 14.9995 30.5047 15.3807C30.6364 15.6757 30.7488 15.9845 30.8256 16.2979C30.9754 16.9128 31.097 17.535 31.2222 18.1553C31.246 18.2726 31.2341 18.3982 31.2341 18.52C31.235 21.4477 31.2341 24.3764 31.2341 27.3041C31.2341 27.3655 31.2359 27.4259 31.2332 27.4873C31.2186 27.8392 31.1144 27.9501 30.7735 27.9611C30.545 27.9684 30.3165 27.9629 30.088 27.9629C29.1292 27.9629 28.1696 27.9473 27.2108 27.9702C26.784 27.9803 26.6204 27.8245 26.6231 27.3838C26.6377 24.9436 26.6313 22.5034 26.6286 20.0632C26.6277 19.6059 26.6588 19.1413 26.5911 18.6932C26.4796 17.951 26.2895 17.2124 25.6022 16.7698C25.1087 16.4519 24.6087 16.2622 23.9616 16.4794C23.458 16.6489 23.0906 16.9201 22.7753 17.2949C22.3421 17.8099 22.1876 18.444 22.184 19.0964C22.1693 21.8262 22.1785 24.556 22.1757 27.2857C22.1776 27.4992 22.1538 27.7082 22.1392 27.951Z" fill="black"/>
<path d="M79.3812 14.5468C79.5786 14.4726 79.6663 14.3434 79.659 14.129C79.6462 13.7661 79.6554 13.4023 79.6554 13.0083C81.0346 13.0083 82.3479 13.0083 83.7024 13.0083C83.7024 13.4903 83.7052 13.9576 83.7015 14.4258C83.6951 15.4925 83.6805 16.56 83.6796 17.6266C83.6759 20.3555 83.686 23.0843 83.6723 25.8132C83.6695 26.3053 83.58 26.7973 83.5352 27.2903C83.4904 27.7888 83.5041 28.2891 83.3304 28.7766C83.1961 29.156 83.2016 29.5912 83.0407 29.956C82.5828 30.9987 82.082 32.0049 81.0985 32.7077C80.5739 33.0825 80.0155 33.373 79.457 33.6699C79.1865 33.8137 78.8346 33.8027 78.5632 33.9439C78.0276 34.2224 77.4235 34.0483 76.8815 34.2618C76.7042 34.3315 76.493 34.3324 76.2965 34.337C75.356 34.3599 74.4119 34.4469 73.4852 34.194C73.3545 34.1583 73.2137 34.1647 73.0793 34.1436C72.5913 34.0657 72.0913 34.0291 71.6207 33.8925C71.1399 33.7533 70.6884 33.5141 70.2223 33.3207C70.1528 33.2923 70.0779 33.2786 69.9654 33.2465C69.9371 32.6216 70.2488 32.0672 70.3749 31.4752C70.4992 30.8897 70.661 30.3124 70.8164 29.6911C70.9626 29.7415 71.0567 29.769 71.1472 29.8048C71.5877 29.9816 72.0191 30.185 72.4688 30.3326C72.934 30.4847 73.4175 30.5864 73.8937 30.7046C73.9814 30.7266 74.0747 30.7312 74.1651 30.7321C74.7281 30.7358 75.2966 30.7861 75.8532 30.7248C76.8312 30.6166 77.7077 30.2391 78.2954 29.4098C78.5933 28.9901 78.7706 28.5045 78.9123 27.9895C79.0805 27.3783 79.0128 26.7863 79.0266 26.1843C79.0275 26.1623 78.9927 26.1403 78.9544 26.0918C78.8867 26.1348 78.7999 26.166 78.7478 26.2274C78.3758 26.6617 77.9289 27.0008 77.4189 27.2473C77.1164 27.393 76.7828 27.4754 76.4738 27.611C75.8944 27.8649 75.2848 27.7888 74.6824 27.8044C73.9933 27.8218 73.3545 27.6394 72.7083 27.403C72.138 27.195 71.6389 26.9027 71.1792 26.5288C70.4873 25.9662 69.9033 25.3119 69.5368 24.4863C69.3321 24.0236 69.099 23.5682 68.9491 23.088C68.8148 22.6591 68.727 22.2028 68.7069 21.7547C68.6694 20.919 68.6859 20.0806 68.7033 19.244C68.7078 19.024 68.7965 18.8069 68.8449 18.5879C68.8641 18.499 68.8897 18.4101 68.8952 18.3203C68.9336 17.7091 69.1794 17.1529 69.4289 16.6177C69.6967 16.0423 70.0331 15.4842 70.4261 14.9876C70.7524 14.5743 71.1911 14.2426 71.6051 13.9063C72.0886 13.5132 72.6352 13.1998 73.2219 13.0028C74.2255 12.6646 75.271 12.6307 76.3194 12.737C77.3449 12.8415 78.2195 13.2685 78.9342 14.0126C79.0924 14.1784 79.2322 14.3672 79.3812 14.5468ZM79.0192 20.164C79.0037 19.6105 79.0503 18.9654 78.8821 18.3203C78.7971 17.9941 78.6902 17.6853 78.5092 17.4195C78.1464 16.8862 77.7205 16.472 77.0341 16.2796C76.1878 16.0423 75.4895 16.2448 74.8415 16.7084C73.8242 17.4369 73.5089 18.5613 73.3855 19.7205C73.3142 20.3875 73.3289 21.0693 73.5117 21.7556C73.678 22.3797 73.9092 22.935 74.3187 23.417C74.847 24.0392 75.5069 24.3956 76.3422 24.4066C76.6539 24.4103 76.9244 24.3113 77.2132 24.2197C78.0587 23.9521 78.5531 23.3409 78.8118 22.5529C78.9635 22.0892 78.9662 21.5742 79.0138 21.0803C79.0403 20.8081 79.0192 20.5314 79.0192 20.164Z" fill="black"/>
<path d="M186.67 36.7176C186.696 37.0136 186.73 37.283 186.565 37.5322C186.533 37.5808 186.519 37.644 186.506 37.7018C186.346 38.4055 186.195 39.1111 186.024 39.8121C185.968 40.0403 185.863 40.2556 185.78 40.4783C185.559 40.4013 185.337 40.3207 185.112 40.2473C184.746 40.1282 184.377 40.0146 184.01 39.8982C183.995 39.8936 183.98 39.8918 183.965 39.8918C183.089 39.8497 182.219 39.561 181.346 39.7223C180.833 39.8167 180.312 39.8552 179.798 40.0018C179.226 40.1649 178.714 40.4205 178.211 40.7037C177.735 40.9713 177.31 41.3094 176.951 41.7391C176.428 42.365 176.027 43.0614 175.767 43.8211C175.592 44.3287 175.542 44.8813 175.461 45.4173C175.399 45.837 175.292 46.2769 175.356 46.6837C175.462 47.3535 175.466 48.0316 175.646 48.7015C175.82 49.3466 176.073 49.9431 176.385 50.5103C176.596 50.8943 176.935 51.2113 177.239 51.5376C177.745 52.0791 178.388 52.4319 179.048 52.7352C179.365 52.8809 179.745 52.8809 180.08 52.9973C181.09 53.3473 182.127 53.2053 183.151 53.165C183.744 53.1421 184.342 53.0239 184.916 52.8278C185.195 52.7325 185.49 52.6821 185.818 52.6014C185.899 53.0275 185.975 53.4536 186.064 53.877C186.184 54.4533 186.324 55.0251 186.436 55.6033C186.478 55.8214 186.468 56.0496 186.482 56.2714C185.988 56.4464 185.539 56.6058 185.09 56.7625C185.047 56.7772 185.001 56.7818 184.956 56.7873C184.102 56.8816 183.259 57.0649 182.391 57.0392C181.494 57.0127 180.595 57.0283 179.698 57.0081C179.28 56.9989 178.872 56.9687 178.451 56.8587C178.068 56.7579 177.663 56.68 177.268 56.5921C177.008 56.5334 176.753 56.439 176.506 56.3355C175.828 56.0514 175.166 55.7325 174.55 55.3248C173.369 54.5441 172.453 53.5086 171.764 52.288C171.454 51.7373 171.172 51.1536 171.03 50.5177C170.938 50.1062 170.791 49.7085 170.674 49.3026C170.645 49.2009 170.626 49.0955 170.617 48.9901C170.587 48.6282 170.622 48.2598 170.454 47.9162C170.417 47.841 170.436 47.7357 170.436 47.6449C170.434 47.4314 170.453 47.2161 170.431 47.0044C170.339 46.1174 170.583 45.257 170.643 44.3828C170.671 43.975 170.899 43.5856 170.989 43.1769C171.087 42.7352 171.258 42.3284 171.431 41.9142C171.842 40.9291 172.415 40.0531 173.154 39.2916C173.555 38.8774 173.983 38.4843 174.432 38.1233C174.95 37.7082 175.512 37.3545 176.132 37.1025C176.568 36.9247 176.986 36.7011 177.427 36.5389C177.791 36.4061 178.188 36.3621 178.552 36.2274C179.077 36.0331 179.639 36.1183 180.159 35.9928C181.065 35.7729 181.974 35.8187 182.868 35.9002C183.418 35.9506 183.979 35.9836 184.525 36.0753C184.951 36.1476 185.363 36.3089 185.779 36.4345C186.075 36.5252 186.368 36.6214 186.67 36.7176Z" fill="black"/>
<path d="M140.866 28.2772C140.334 28.2506 139.871 28.2708 139.424 28.1929C138.942 28.1086 138.466 27.9748 137.992 27.8328C137.31 27.6285 136.69 27.3141 136.121 26.9165C135.241 26.3016 134.509 25.5291 134.032 24.5477C133.819 24.1097 133.564 23.6772 133.443 23.2117C133.259 22.5116 133.109 21.7941 133.132 21.0583C133.154 20.3573 133.138 19.6536 133.212 18.9581C133.261 18.5045 133.458 18.0692 133.554 17.6184C133.677 17.0493 133.968 16.5591 134.252 16.0716C134.67 15.3559 135.23 14.7557 135.891 14.249C136.426 13.8385 137.017 13.5288 137.622 13.2447C137.861 13.132 138.119 13.0523 138.376 12.9881C138.993 12.8351 139.616 12.6958 140.254 12.7031C141.061 12.7132 141.871 12.7004 142.67 12.7874C143.087 12.8323 143.507 12.9771 143.92 13.1091C144.537 13.3052 145.083 13.6121 145.608 13.9677C146.403 14.5037 147.052 15.1882 147.557 16.001C147.785 16.3667 148.02 16.7479 148.143 17.1556C148.375 17.9318 148.662 18.7024 148.649 19.5344C148.642 20.0375 148.648 20.5406 148.648 21.0436C148.648 21.7932 148.444 22.4997 148.246 23.2172C148.075 23.8385 147.793 24.3965 147.468 24.9308C147.07 25.5859 146.541 26.1357 145.937 26.6214C145.34 27.1006 144.665 27.4333 143.983 27.7476C143.652 27.9006 143.238 27.8713 142.901 28.017C142.213 28.3185 141.49 28.1654 140.866 28.2772ZM137.809 20.5076C137.887 20.9566 138.005 21.4001 138.034 21.85C138.069 22.3778 138.264 22.8406 138.482 23.3015C138.949 24.2875 139.772 24.7979 140.807 25.0031C140.932 25.0279 141.075 24.9793 141.206 24.9491C141.337 24.9188 141.464 24.8593 141.595 24.829C142.048 24.7264 142.422 24.4882 142.721 24.1455C143.35 23.4261 143.699 22.5831 143.77 21.6255C143.783 21.4432 143.815 21.2626 143.832 21.0812C143.86 20.766 143.962 20.4297 143.891 20.1383C143.75 19.5638 143.779 18.9718 143.596 18.3945C143.41 17.809 143.177 17.2592 142.774 16.8303C141.883 15.881 140.873 15.7142 139.766 16.2512C138.934 16.6553 138.555 17.4094 138.229 18.2314C138.095 18.5704 138.087 18.904 138.023 19.2403C137.946 19.6563 137.882 20.0742 137.809 20.5076Z" fill="black"/>
<path d="M165.752 27.9483C164.177 27.9483 162.688 27.9483 161.146 27.9483C161.128 27.7549 161.094 27.5652 161.094 27.3746C161.09 24.797 161.076 22.2193 161.103 19.6426C161.108 19.0836 160.995 18.5503 160.859 18.0353C160.698 17.4269 160.285 16.8844 159.712 16.6251C159.263 16.4225 158.728 16.188 158.2 16.5142C157.14 16.692 156.667 17.4892 156.29 18.3661C156.211 18.5503 156.244 18.7876 156.244 19.0002C156.242 21.7758 156.243 24.5514 156.242 27.327C156.242 27.5212 156.224 27.7155 156.214 27.9363C154.679 27.9363 153.179 27.9363 151.627 27.9363C151.611 27.7494 151.583 27.5579 151.583 27.3673C151.58 24.3324 151.583 21.2975 151.58 18.2626C151.579 17.0887 151.586 15.914 151.551 14.7402C151.536 14.2462 151.366 13.7615 151.417 13.2575C151.424 13.1851 151.418 13.1118 151.418 13.0064C152.761 13.0064 154.078 13.0064 155.372 13.0064C155.677 13.6021 155.577 14.238 155.631 14.8584C155.877 14.9207 155.958 14.7484 156.069 14.6055C156.579 13.9484 157.249 13.5068 157.991 13.1494C158.994 12.6665 160.052 12.661 161.125 12.7178C162.616 12.7966 163.727 13.5526 164.605 14.6953C164.82 14.9738 164.962 15.3147 165.105 15.6409C165.255 15.9818 165.367 16.3401 165.495 16.691C165.51 16.7341 165.535 16.7781 165.535 16.8212C165.525 17.5359 165.771 18.2167 165.763 18.9388C165.735 21.7291 165.752 24.5202 165.752 27.3114C165.752 27.5084 165.752 27.7027 165.752 27.9483Z" fill="black"/>
<path d="M111.167 27.9455C109.763 27.9455 108.413 27.9455 107.049 27.9455C106.933 27.4672 106.819 27.0017 106.691 26.472C106.524 26.6516 106.411 26.8019 106.27 26.9192C105.827 27.2885 105.346 27.5881 104.809 27.8227C103.654 28.3267 102.449 28.3771 101.256 28.1755C100.109 27.9822 99.1229 27.4314 98.4247 26.4189C98.1331 25.9965 97.9266 25.5465 97.7319 25.0865C97.6405 24.8703 97.6323 24.6082 97.6341 24.3672C97.6396 23.6827 97.5756 22.9799 97.7118 22.3201C97.9247 21.2828 98.5307 20.4434 99.3569 19.7699C99.9245 19.3072 100.579 19.0011 101.241 18.7161C101.552 18.5824 101.9 18.5356 102.234 18.455C102.715 18.3377 103.194 18.2167 103.677 18.1132C103.884 18.0683 104.098 18.0491 104.31 18.0399C104.827 18.0179 105.344 18.0124 105.861 17.995C106.248 17.9822 106.407 17.8035 106.297 17.4434C106.113 16.8404 105.79 16.3676 105.151 16.1202C104.77 15.9726 104.398 15.914 104.004 15.9002C103 15.8654 102.027 15.9552 101.059 16.297C100.525 16.4858 100.028 16.768 99.4566 16.911C99.3588 16.6269 99.2244 16.3557 99.175 16.0698C99.0873 15.5594 98.8963 15.0856 98.7464 14.5963C98.6788 14.3745 98.7098 14.1225 98.6961 13.8944C99.2765 13.6515 99.8039 13.4188 100.341 13.2126C100.604 13.1127 100.881 13.0376 101.158 12.9964C101.95 12.8782 102.732 12.6802 103.54 12.6986C104.361 12.7169 105.183 12.7325 106.002 12.7645C106.485 12.7838 106.926 12.9771 107.383 13.1164C108.092 13.3327 108.688 13.7148 109.231 14.2105C109.712 14.6504 110.093 15.1617 110.342 15.7527C110.803 16.8505 111.001 18.0032 110.995 19.1991C110.982 21.456 110.996 23.7129 111.006 25.969C111.008 26.4198 110.984 26.8725 111.154 27.3141C111.222 27.4837 111.167 27.6999 111.167 27.9455ZM106.511 22.0177C106.511 21.7822 106.511 21.5843 106.511 21.3864C106.511 21.3708 106.511 21.3561 106.511 21.3405C106.493 21.0189 106.355 20.854 106.04 20.864C105.774 20.8732 105.513 20.9648 105.246 20.9877C104.796 21.0262 104.355 21.0418 103.913 21.1958C103.293 21.4129 102.726 21.6677 102.391 22.2688C101.921 23.1137 102.043 23.9365 102.725 24.5725C103.048 24.8739 103.458 25.0151 103.918 25.048C104.291 25.0746 104.6 24.9234 104.918 24.8015C105.437 24.6027 105.852 24.26 106.128 23.7633C106.437 23.2071 106.544 22.6097 106.511 22.0177Z" fill="black"/>
<path d="M108.308 56.7735C106.957 56.7735 105.622 56.7735 104.269 56.7735C103.988 56.3923 104.015 55.9085 103.951 55.3706C103.752 55.5135 103.607 55.6024 103.48 55.7133C102.891 56.2219 102.245 56.5957 101.496 56.8505C100.94 57.0392 100.364 56.9687 99.8167 57.1565C99.5845 57.2363 99.2838 57.1226 99.0151 57.0896C98.8954 57.075 98.7775 57.0328 98.6577 57.0246C97.3444 56.9412 96.3545 56.2769 95.5777 55.268C95.2349 54.8226 95.0247 54.3031 94.8748 53.7468C94.7496 53.2823 94.682 52.8287 94.6966 52.354C94.7204 51.577 94.9333 50.8576 95.2788 50.1594C95.7394 49.2302 96.4441 48.5888 97.3407 48.0903C97.9174 47.7705 98.517 47.524 99.133 47.327C99.632 47.1675 100.173 47.1465 100.684 47.02C101.506 46.8166 102.339 46.8468 103.173 46.8312C103.438 46.8267 103.505 46.7057 103.465 46.4491C103.368 45.8352 103.08 45.3486 102.513 45.0792C102.194 44.928 101.848 44.7841 101.503 44.7493C100.961 44.6953 100.403 44.6833 99.8633 44.7521C99.3807 44.8135 98.8872 44.884 98.4265 45.0902C98.0244 45.2707 97.5984 45.399 97.1862 45.5603C97.0217 45.6244 96.8673 45.7151 96.669 45.8123C96.2915 44.8675 96.1005 43.8861 95.7714 42.9212C95.9003 42.7801 96.0328 42.6628 96.2513 42.595C96.689 42.4585 97.1049 42.2523 97.5308 42.0791C97.6268 42.0397 97.7282 42.0122 97.8297 41.9902C98.3589 41.8775 98.8881 41.7639 99.4191 41.6585C99.6558 41.6109 99.8953 41.555 100.135 41.5476C100.774 41.5293 101.413 41.5476 102.051 41.5275C102.894 41.5018 103.687 41.6915 104.489 41.9417C105.221 42.1698 105.836 42.5565 106.395 43.044C106.975 43.5507 107.336 44.216 107.631 44.928C108.011 45.8443 108.075 46.7992 108.077 47.7686C108.08 49.2779 108.048 50.7871 108.086 52.2954C108.124 53.7697 108.23 55.2396 108.308 56.7735ZM103.586 49.8542C103.484 49.813 103.443 49.7828 103.402 49.7828C102.483 49.769 101.583 49.835 100.71 50.1887C99.7947 50.5589 99.2244 51.2883 99.3286 52.3778C99.3962 53.0889 100.059 53.7899 100.789 53.8256C101.256 53.8486 101.708 53.8366 102.162 53.635C102.889 53.3134 103.66 52.4392 103.59 51.555C103.564 51.237 103.586 50.9163 103.586 50.5965C103.586 50.3426 103.586 50.0888 103.586 49.8542Z" fill="black"/>
<path d="M165.363 36.2484C166.409 36.1339 170.233 36.1861 170.585 36.3236C170.364 36.724 170.149 37.1235 169.925 37.5185C169.317 38.5915 168.705 39.6627 168.095 40.7339C167.771 41.3011 167.441 41.8647 167.121 42.4337C166.803 43.0009 166.5 43.5764 166.18 44.1418C165.667 45.0499 165.147 45.9525 164.63 46.8578C164.387 47.283 164.128 47.7008 163.907 48.137C163.838 48.2736 163.849 48.4596 163.849 48.6236C163.845 51.1554 163.847 53.6873 163.846 56.2191C163.846 56.3978 163.846 56.5756 163.846 56.7781C162.277 56.7781 160.763 56.7781 159.182 56.7781C159.182 56.5847 159.182 56.4079 159.182 56.2301C159.182 53.8815 159.159 51.5321 159.196 49.1835C159.207 48.5292 159.01 47.9895 158.709 47.4443C158.294 46.6929 157.912 45.9222 157.501 45.169C157.174 44.5697 156.815 43.9869 156.486 43.3886C156.191 42.8543 155.916 42.31 155.637 41.7685C155.247 41.0162 154.862 40.262 154.471 39.5106C154.142 38.8783 153.811 38.2479 153.475 37.6202C153.308 37.3077 153.119 37.0063 152.954 36.692C152.89 36.5701 152.87 36.4253 152.815 36.242C154.612 36.242 156.339 36.242 158.05 36.242C158.357 36.9256 158.662 37.5698 158.936 38.2268C159.257 38.9965 159.546 39.7791 159.857 40.5525C160.006 40.9227 160.18 41.2828 160.334 41.6512C160.535 42.1295 160.724 42.6133 160.925 43.0917C161.103 43.515 161.297 43.9329 161.474 44.3571C161.52 44.4671 161.514 44.599 161.563 44.7072C161.594 44.7759 161.675 44.8446 161.746 44.8639C161.787 44.8749 161.883 44.796 161.905 44.7383C162.068 44.3196 162.215 43.8944 162.373 43.4738C162.536 43.0403 162.701 42.6069 162.874 42.1781C163.058 41.7226 163.255 41.2727 163.445 40.8201C163.68 40.2565 163.913 39.6911 164.151 39.1276C164.329 38.7061 164.515 38.2873 164.692 37.8658C164.916 37.3297 165.137 36.7918 165.363 36.2484Z" fill="black"/>
<path d="M79.5466 40.0348C79.5347 39.8918 79.5183 39.7883 79.5183 39.6847C79.5164 38.6786 79.5146 37.6724 79.5183 36.6663C79.5201 36.2585 79.5557 36.2265 79.9579 36.2109C80.0639 36.2063 80.1709 36.209 80.2778 36.209C85.0871 36.209 89.8964 36.209 94.7048 36.209C94.9004 36.209 95.0951 36.209 95.3519 36.209C95.4406 37.5084 95.3748 38.761 95.3958 40.0577C93.5194 40.0577 91.7152 40.0577 89.8544 40.0577C89.837 40.317 89.8087 40.5369 89.8087 40.7577C89.8059 45.8801 89.8068 51.0015 89.8068 56.1238C89.8068 56.3199 89.8068 56.5169 89.8068 56.702C89.444 56.8248 86.2515 56.8679 85.1785 56.7698C85.1684 56.5902 85.1483 56.4006 85.1483 56.2109C85.1465 52.1561 85.1465 48.1013 85.1465 44.0465C85.1465 42.9643 85.1465 41.8821 85.1465 40.7999C85.1465 40.6936 85.1529 40.5855 85.1419 40.4801C85.1118 40.1896 84.9994 40.0797 84.706 40.0769C83.9903 40.0705 83.2756 40.0742 82.56 40.0742C81.7228 40.0742 80.8856 40.076 80.0493 40.0723C79.8866 40.0714 79.7248 40.0485 79.5466 40.0348Z" fill="black"/>
<path d="M110.208 41.8427C111.941 41.8427 113.608 41.8427 115.327 41.8427C116.276 43.3189 117.12 44.8987 118.055 46.527C118.905 44.9152 119.718 43.3739 120.531 41.8335C122.209 41.8335 123.848 41.8335 125.528 41.8335C125.457 42.0104 125.421 42.1717 125.335 42.299C124.977 42.8287 124.605 43.3482 124.24 43.8724C123.843 44.4405 123.447 45.0086 123.051 45.5768C122.637 46.1687 122.221 46.7607 121.806 47.3526C121.465 47.8392 121.118 48.3221 120.793 48.8197C120.748 48.8902 120.78 49.0534 120.833 49.1395C121.235 49.7983 121.646 50.4526 122.064 51.1014C122.722 52.124 123.393 53.1366 124.045 54.1619C124.507 54.8868 124.948 55.6253 125.396 56.3593C125.468 56.4775 125.527 56.604 125.619 56.779C123.822 56.779 122.107 56.779 120.35 56.779C119.77 55.7087 119.186 54.6109 118.582 53.5242C118.346 53.099 118.069 52.6995 117.927 52.2239C117.9 52.1313 117.749 52.0754 117.643 51.993C116.819 53.5737 115.988 55.1699 115.151 56.7772C113.489 56.7772 111.822 56.7772 110.116 56.7772C110.15 56.6617 110.156 56.5682 110.201 56.4995C110.559 55.9552 110.928 55.4164 111.289 54.873C112.028 53.7624 112.766 52.6509 113.502 51.5375C113.969 50.8338 114.42 50.1209 114.901 49.4281C115.017 49.2614 115.038 49.1193 114.941 48.9755C114.221 47.9098 113.488 46.8523 112.766 45.7884C112.383 45.2249 112.011 44.6531 111.634 44.0841C111.26 43.5187 110.884 42.9551 110.515 42.387C110.412 42.2285 110.328 42.0571 110.208 41.8427Z" fill="black"/>
<path d="M119.614 8.81053C119.614 10.1805 119.614 11.5458 119.614 12.957C120.711 12.957 121.754 12.957 122.781 12.957C122.906 13.3638 122.922 15.8352 122.806 16.3602C122.659 16.3685 122.498 16.3831 122.336 16.3841C121.59 16.3868 120.844 16.3831 120.1 16.3868C119.7 16.3886 119.619 16.4455 119.62 16.8175C119.626 18.8289 119.637 20.8402 119.664 22.8507C119.674 23.4985 120.013 23.9823 120.556 24.3177C120.652 24.3773 120.781 24.4057 120.896 24.4075C121.397 24.4158 121.899 24.4084 122.401 24.4066C122.52 24.4066 122.639 24.4066 122.802 24.4066C122.833 25.5923 122.812 26.7543 122.819 27.8832C121.42 28.324 120.057 28.3542 118.728 28.1673C117.357 27.9748 116.201 27.3077 115.608 25.9268C115.424 25.4961 115.297 25.0627 115.204 24.6018C114.824 22.7123 115.074 20.8054 115.006 18.9077C114.982 18.2534 115.006 17.5973 115 16.9421C114.998 16.7671 114.96 16.593 114.935 16.3776C114.301 16.3776 113.714 16.3776 113.141 16.3776C113.013 15.9625 113.003 13.4582 113.123 12.9872C113.715 12.9872 114.319 12.9872 114.986 12.9872C115.029 11.9114 114.979 10.8677 115.017 9.78185C116.475 9.43639 117.91 9.09459 119.347 8.7583C119.41 8.74547 119.489 8.78579 119.614 8.81053Z" fill="black"/>
<path d="M4.60646 27.9657C3.74185 27.9657 2.96588 27.9657 2.19084 27.9657C1.61229 27.9657 1.03375 27.9702 0.455205 27.9638C0.125262 27.9602 0.0283809 27.8612 0.00553158 27.5286C-0.00360813 27.392 0.00187569 27.2546 0.00187569 27.1171C0.00187569 20.7724 0.00187569 14.4277 0.00187569 8.08387C0.00187569 7.29674 0.00461764 7.2949 0.791547 7.29399C1.90294 7.29399 3.01432 7.29216 4.12571 7.2949C4.61103 7.29582 4.64942 7.33522 4.6677 7.80622C4.67135 7.89786 4.66953 7.98949 4.66953 8.08112C4.66953 14.4405 4.67044 20.8008 4.66678 27.1602C4.6677 27.4131 4.63023 27.6669 4.60646 27.9657Z" fill="black"/>
<path d="M87.1289 13C88.4706 13 89.7593 13 91.0809 13C91.0974 13.1512 91.1157 13.2978 91.1303 13.4445C91.1924 14.1042 91.2518 14.764 91.3167 15.4228C91.324 15.4943 91.3615 15.5621 91.41 15.7069C91.8816 14.4588 92.6621 13.5526 93.7927 13.0092C94.6015 12.6207 95.4844 12.6161 96.3847 12.7673C96.3847 14.1794 96.3847 15.5612 96.3847 16.9733C96.2759 16.9879 96.1772 17.0136 96.0776 17.0127C95.6974 17.0108 95.3163 16.9824 94.937 16.998C93.9325 17.0392 93.0862 17.4241 92.504 18.2616C92.1521 18.7675 91.9346 19.3328 91.9373 19.9779C91.9492 22.4328 91.9428 24.8886 91.9401 27.3435C91.9401 27.5368 91.9163 27.7292 91.9026 27.9409C90.3726 27.9409 88.8856 27.9409 87.3775 27.9409C87.2294 27.7677 87.2806 27.5469 87.2806 27.3416C87.2779 23.7276 87.2797 20.1126 87.2779 16.4986C87.277 15.782 87.2624 15.0655 87.2514 14.3489C87.2496 14.2435 87.2587 14.1235 87.2139 14.0355C87.0503 13.7157 87.1262 13.3858 87.1289 13Z" fill="black"/>
<path d="M65.6369 27.9446C64.1233 27.9446 62.6345 27.9446 61.152 27.9446C61.0533 27.5945 61.0204 13.69 61.1155 13.0046C62.6263 13.0046 64.1416 13.0046 65.657 13.0046C65.7776 13.3977 65.7676 27.5432 65.6369 27.9446Z" fill="black"/>
<path d="M125.594 12.989C127.148 12.989 128.652 12.989 130.151 12.989C130.27 13.3776 130.267 27.5212 130.144 27.9373C128.668 27.9373 127.183 27.9373 125.648 27.9373C125.624 27.8044 125.576 27.6624 125.576 27.5203C125.572 22.7645 125.573 18.0087 125.574 13.2529C125.574 13.1805 125.585 13.1072 125.594 12.989Z" fill="black"/>
<path d="M127.865 11.0775C127.713 11.0775 127.561 11.0766 127.409 11.0775C126.657 11.0812 126.186 10.6377 125.774 10.076C125.522 9.73053 125.553 9.30352 125.406 8.92782C125.359 8.80961 125.441 8.64009 125.471 8.49531C125.486 8.42292 125.527 8.35602 125.541 8.28363C125.733 7.30865 126.514 6.6159 127.494 6.56642C127.781 6.55175 128.071 6.56642 128.359 6.56642C129.172 6.56825 130.054 7.33339 130.267 8.11869C130.499 8.96997 130.352 9.68838 129.836 10.3527C129.504 10.7788 129.059 11.0409 128.503 11.0666C128.291 11.0766 128.078 11.0684 127.866 11.0684C127.865 11.073 127.865 11.0757 127.865 11.0775Z" fill="black"/>
<path d="M63.4242 11.0757C63.2423 11.0757 63.0595 11.0785 62.8776 11.0748C62.1291 11.062 61.6593 10.6139 61.2864 10.0302C60.8778 9.38874 60.9637 8.663 61.1145 8.0014C61.2315 7.491 61.6309 7.0869 62.1482 6.81291C62.8429 6.44546 63.5695 6.48853 64.2613 6.63239C64.9797 6.78176 65.5409 7.24084 65.7456 8.01606C65.7923 8.19108 65.8919 8.35603 65.9147 8.53288C66.0482 9.57842 65.5016 10.591 64.4606 11.0088C64.1526 11.1325 63.7715 11.0757 63.4242 11.1023C63.4251 11.095 63.4242 11.0858 63.4242 11.0757Z" fill="black"/>
<path d="M21.3085 53.734C20.6998 53.4848 20.1633 53.2557 19.6204 53.0449C19.1835 52.8754 18.7777 52.6518 18.3719 52.4191C17.6078 51.981 16.957 51.4276 16.533 50.6542C16.3675 50.3518 16.2469 49.9862 16.235 49.6444C16.1975 48.5475 16.2021 47.4479 16.2332 46.3511C16.2423 46.034 16.3511 45.6968 16.4946 45.41C16.7852 44.8309 17.223 44.3479 17.7568 43.9915C18.1818 43.7074 18.5665 43.3262 19.1058 43.2383C19.3407 42.956 19.6935 42.8928 20.0316 42.7434C19.8525 42.6399 19.6926 42.5336 19.5216 42.4511C18.9276 42.1625 18.3682 41.7959 17.9706 41.2846C17.5859 40.7898 17.2376 40.2528 17.2742 39.5335C17.3318 38.4229 17.2888 37.3077 17.2897 36.1944C17.2897 35.9277 17.3245 35.6895 17.4542 35.4274C17.733 34.8611 18.0931 34.3553 18.5949 34.0172C18.9943 33.7487 19.3681 33.4215 19.8516 33.2612C20.2181 33.1393 20.5453 32.9011 20.8917 32.7169C20.9438 32.6894 21.0014 32.6601 21.058 32.6582C21.4401 32.6454 21.7472 32.4218 22.089 32.2963C22.1859 32.2605 22.2873 32.2266 22.3897 32.2147C22.5505 32.1964 22.7251 32.2376 22.8348 32.0617C22.8531 32.0333 22.9161 32.0241 22.96 32.0214C23.2534 31.9985 23.5678 32.0718 23.8137 31.8326C24.4681 31.927 25.0439 31.4569 25.7056 31.5724C25.8436 31.5962 25.9999 31.5293 26.1452 31.4972C26.2878 31.4661 26.4285 31.3937 26.5711 31.3928C28.4585 31.3836 30.3467 31.3827 32.2341 31.3818C32.3245 31.3818 32.437 31.3699 32.5028 31.4157C32.8181 31.6365 33.1718 31.5687 33.5155 31.5797C33.7238 31.587 33.945 31.543 34.1004 31.7465C34.1242 31.7776 34.1854 31.8051 34.2229 31.7978C34.7301 31.7007 35.1734 32.0195 35.6669 32.0195C35.7958 32.0195 35.9247 32.0828 36.0536 32.1176C36.1669 32.1487 36.2784 32.1909 36.3935 32.2092C36.538 32.2321 36.7034 32.1854 36.7847 32.3705C36.7984 32.4017 36.8588 32.4291 36.8981 32.4291C37.3057 32.4356 37.632 32.6628 37.9848 32.8204C38.1731 32.9047 38.3686 32.9734 38.5587 33.0532C39.3548 33.3895 40.0439 33.8641 40.638 34.5056C40.904 34.7924 41.2001 35.0544 41.3436 35.4137C41.4743 35.739 41.5392 36.0972 41.5886 36.4473C41.6269 36.7139 41.5959 36.9898 41.5959 37.2088C42.1443 37.4534 42.6204 37.7072 43.1249 37.8786C43.6148 38.0463 44.0398 38.323 44.4529 38.6043C44.8752 38.8921 45.2417 39.265 45.6128 39.6215C45.8988 39.8964 46.0762 40.2519 46.2105 40.6221C46.2608 40.7614 46.2845 40.9181 46.2855 41.0665C46.2919 42.2257 46.2827 43.3849 46.2937 44.5431C46.2983 44.9601 46.1136 45.2835 45.9153 45.6317C45.6777 46.0514 45.4007 46.4125 45.0178 46.702C44.3451 47.2106 43.6322 47.644 42.8352 47.9308C42.6744 48.1993 42.3426 48.0555 42.083 48.2204C42.6442 48.488 43.177 48.7024 43.6688 48.9892C44.017 49.1926 44.2976 49.5097 44.6303 49.7443C44.9812 49.9926 45.2042 50.3628 45.366 50.7119C45.5049 51.0116 45.6749 51.3396 45.6612 51.7309C45.6237 52.858 45.6448 53.9869 45.6493 55.1158C45.6512 55.5337 45.4483 55.8645 45.2572 56.2154C44.9401 56.7973 44.4392 57.2042 43.9302 57.567C43.528 57.8529 43.0811 58.1004 42.6213 58.3203C42.1936 58.5246 41.6964 58.5796 41.3244 58.9012C40.9451 58.8133 40.6709 59.1633 40.3035 59.1459C40.1938 59.1404 40.0796 59.2146 39.9708 59.2595C39.9178 59.2815 39.873 59.3466 39.8237 59.3475C39.5129 59.3585 39.194 59.3227 38.9326 59.5491C38.2809 59.4474 37.6914 59.8762 37.0352 59.769C36.8121 59.7323 36.5974 59.78 36.3817 59.8982C36.2199 59.9871 35.9996 59.9908 35.805 59.9917C34.2978 59.999 32.7907 60.0008 31.2835 59.9926C30.9691 59.9908 30.6666 59.9514 30.3577 59.813C30.1137 59.7039 29.7901 59.7782 29.5022 59.7598C29.2856 59.7461 29.0452 59.8231 28.8807 59.5867C28.8524 59.5454 28.7381 59.5592 28.6632 59.5546C28.3552 59.5372 28.0344 59.6224 27.7593 59.3832C27.6953 59.3282 27.5527 59.3622 27.4467 59.3585C27.2694 59.3521 27.0774 59.3979 26.9568 59.2018C26.9376 59.1716 26.8773 59.1523 26.8362 59.1523C26.2604 59.145 25.775 58.8123 25.2239 58.6996C24.8309 58.619 24.4626 58.3917 24.097 58.2021C23.4663 57.8749 22.8704 57.4855 22.3623 56.987C21.9976 56.6296 21.706 56.2209 21.4821 55.7408C21.2774 55.3019 21.3249 54.8739 21.3094 54.4341C21.3011 54.1949 21.3085 53.9521 21.3085 53.734ZM29.3925 39.8368C30.2745 39.8368 31.1574 39.8386 32.0394 39.835C32.1591 39.8341 32.2999 39.8386 32.3949 39.7809C32.6746 39.6123 32.9771 39.6059 33.2787 39.6251C33.7814 39.6572 34.2265 39.3118 34.7383 39.4153C34.7694 39.4217 34.8096 39.3677 34.8499 39.3539C34.9869 39.3072 35.124 39.2568 35.2648 39.2256C35.3672 39.2027 35.5353 39.2458 35.5719 39.1908C35.783 38.8719 36.1651 38.9745 36.4493 38.8316C36.7811 38.6648 37.1503 38.5466 37.5022 38.3844C38.0771 38.1196 38.5615 37.7558 38.9755 37.3022C39.2643 36.9861 39.5157 36.6278 39.4992 36.1385C39.4855 35.7316 39.3073 35.432 39.0843 35.114C38.6922 34.5541 38.1566 34.2023 37.5589 33.92C37.2216 33.7606 36.8816 33.6066 36.5389 33.46C36.2464 33.3354 35.9558 33.1952 35.6505 33.1155C35.2365 33.0064 34.8087 32.9487 34.3865 32.8681C34.3417 32.8598 34.2777 32.8571 34.2594 32.8277C34.1251 32.6161 33.9149 32.6802 33.7248 32.6674C33.4972 32.6527 33.2221 32.715 33.0539 32.6078C32.808 32.4511 32.5704 32.4722 32.3209 32.4658C31.8648 32.453 31.4078 32.4585 30.9518 32.4383C30.7909 32.431 30.6337 32.3448 30.4728 32.3403C29.7645 32.3201 29.0562 32.3164 28.3479 32.3073C28.1971 32.4869 27.9878 32.4218 27.7967 32.4456C27.0985 32.5327 26.3956 32.376 25.6891 32.6124C25.2541 32.7581 24.7523 32.7068 24.2889 32.8745C23.9069 33.0128 23.4773 33.0128 23.0825 33.121C22.6758 33.2328 22.269 33.3702 21.8897 33.5517C21.3587 33.8064 20.814 34.0529 20.346 34.4121C19.6606 34.939 19.2337 35.5988 19.4129 36.5279C19.4878 36.9183 19.6807 37.2308 19.953 37.4919C20.3241 37.8465 20.7601 38.1269 21.2235 38.3386C21.5726 38.499 21.9144 38.6804 22.2764 38.8224C22.5304 38.9223 22.8275 38.8967 23.0295 39.0478C23.3585 39.2943 23.7661 39.2128 24.1162 39.3951C24.3831 39.5335 24.7761 39.3539 25.0503 39.6151C25.6169 39.5674 26.1552 39.7699 26.7045 39.8167C27.5929 39.8927 28.495 39.8377 29.3925 39.8368ZM33.3656 49.5876C33.3665 49.5344 33.3683 49.4804 33.3692 49.4272C33.2276 49.418 33.0859 49.4016 32.9442 49.4006C32.3968 49.397 31.8484 49.4016 31.3009 49.3951C31.1346 49.3933 30.9362 49.419 30.8101 49.3402C30.5679 49.188 30.3166 49.232 30.0652 49.199C29.5187 49.1266 28.9758 49.0295 28.4329 48.9388C28.3908 48.9315 28.3561 48.8939 28.314 48.8783C28.2062 48.838 28.0993 48.7894 27.9878 48.7647C27.6176 48.685 27.2456 48.6153 26.8745 48.5411C26.8599 48.5384 26.8462 48.5292 26.8325 48.5228C26.5546 48.3954 26.2887 48.2112 25.9971 48.1553C25.6142 48.082 25.2906 47.9125 24.9643 47.7283C24.8172 47.6449 24.6646 47.5698 24.5156 47.4901C24.2898 47.37 24.0568 47.2619 23.8402 47.1272C23.2397 46.7543 22.7452 46.2668 22.3623 45.6721C22.1301 45.311 21.9373 44.9335 21.9446 44.4854C21.9501 44.1555 21.9455 43.8247 21.9455 43.5443C21.4044 43.2566 21.0142 43.6011 20.6321 43.7551C19.9603 44.0263 19.3407 44.4332 18.8535 44.9894C18.5528 45.333 18.3033 45.716 18.3755 46.2182C18.4029 46.4115 18.349 46.6425 18.4368 46.7973C18.6058 47.0979 18.8215 47.3847 19.0674 47.6266C19.3224 47.8786 19.6066 48.1572 19.9311 48.268C20.3579 48.4147 20.7107 48.6987 21.1595 48.8105C21.5507 48.9076 21.908 49.1468 22.3303 49.1734C22.3897 49.177 22.4729 49.189 22.5003 49.2284C22.6401 49.4272 22.8439 49.3777 23.034 49.3896C23.1245 49.3951 23.2525 49.3722 23.3 49.4217C23.523 49.6554 23.8009 49.572 24.0623 49.5894C24.1683 49.5967 24.3026 49.5683 24.3748 49.6224C24.6728 49.8469 25.011 49.78 25.3382 49.7901C25.7577 49.8029 26.1854 49.7534 26.5684 50.0027C26.636 50.0467 26.7466 50.0302 26.8371 50.0302C27.9028 50.032 28.9675 50.0329 30.0332 50.0283C30.1502 50.0274 30.269 49.9963 30.3833 49.9651C30.5231 49.9266 30.6556 49.8451 30.7964 49.8331C31.1446 49.8029 31.4947 49.8038 31.8438 49.7882C31.98 49.7818 32.1582 49.8139 32.2423 49.7415C32.4562 49.5564 32.6938 49.5967 32.9314 49.5885C33.0758 49.583 33.2212 49.5876 33.3656 49.5876ZM28.0965 54.7117C28.0938 54.7539 28.0901 54.7951 28.0874 54.8373C28.1815 54.8547 28.2747 54.8803 28.3698 54.8877C28.5663 54.9032 28.8122 54.84 28.9493 54.9353C29.1915 55.1039 29.4346 55.0801 29.6877 55.0847C30.0213 55.0911 30.3549 55.0599 30.6584 55.2643C30.7461 55.3229 30.8942 55.3019 31.0139 55.3019C32.6709 55.3037 34.3289 55.3046 35.9859 55.3019C36.1212 55.3019 36.2857 55.3193 36.3862 55.2524C36.6915 55.0489 37.0242 55.081 37.3541 55.0874C37.8367 55.0975 38.269 54.7695 38.7653 54.8822C38.9728 54.6494 39.2506 54.6934 39.5175 54.6806C39.5815 54.6769 39.6436 54.6192 39.7058 54.5844C39.7807 54.5422 39.8493 54.4771 39.9288 54.4579C40.3181 54.3654 40.6947 54.2545 41.0585 54.0712C41.5803 53.8073 42.1113 53.5892 42.5756 53.2007C43.1524 52.7178 43.6249 52.2321 43.5125 51.4093C43.4978 51.3048 43.5134 51.1957 43.5079 51.0894C43.5052 51.0299 43.5079 50.9557 43.475 50.9135C43.2191 50.59 43.0427 50.2033 42.6789 49.9633C42.2823 49.7021 41.8947 49.4245 41.467 49.2192C41.2074 49.0955 40.9223 49.024 40.5795 48.9049C40.5795 49.1972 40.5823 49.408 40.5786 49.6187C40.575 49.8845 40.5265 50.1245 40.4251 50.3885C40.0284 51.4239 39.1327 51.9407 38.333 52.5657C37.7453 52.7141 37.2819 53.1393 36.6778 53.2758C36.3022 53.3611 35.9649 53.6048 35.5618 53.6405C35.4896 53.6469 35.3946 53.6699 35.3544 53.7203C35.2292 53.8779 35.061 53.855 34.8965 53.865C34.8069 53.8705 34.6908 53.8577 34.6323 53.9072C34.423 54.084 34.1808 54.0575 33.9405 54.0611C33.85 54.063 33.7248 54.0401 33.6745 54.0895C33.4177 54.337 33.1051 54.2297 32.8135 54.26C32.6527 54.2765 32.4909 54.3021 32.3328 54.3397C32.1619 54.3809 31.9973 54.4744 31.8264 54.4845C31.4627 54.5074 31.0962 54.4881 30.7306 54.4946C30.5953 54.4964 30.429 54.4762 30.3303 54.544C30.0935 54.7071 29.8422 54.6751 29.5881 54.6797C29.0918 54.6916 28.5937 54.7017 28.0965 54.7117ZM30.8412 44.5367C30.8412 44.5862 30.8421 44.6357 30.8421 44.6852C30.9554 44.698 31.0678 44.7209 31.1812 44.7218C31.8959 44.7319 32.6115 44.7346 33.3263 44.7466C33.563 44.7502 33.8088 44.6962 34.0236 44.8813C34.0821 44.9317 34.2594 44.928 34.3216 44.8758C34.5226 44.7099 34.7466 44.7484 34.9696 44.7456C35.6852 44.7365 36.3999 44.7328 37.1156 44.7218C37.2362 44.72 37.3852 44.7365 37.4702 44.6751C37.7115 44.4982 37.9839 44.4863 38.2526 44.4936C38.7251 44.5065 39.1382 44.1903 39.618 44.2682C39.6427 44.2719 39.6829 44.2536 39.6976 44.2325C39.8264 44.0511 40.0193 44.0987 40.1966 44.0868C40.2871 44.0804 40.4041 44.1024 40.4635 44.0556C40.7596 43.822 41.1425 43.8183 41.4633 43.6497C41.7156 43.5168 41.9934 43.4298 42.242 43.2914C42.6259 43.077 43.0043 42.8488 43.3662 42.6005C43.7254 42.3549 44.0225 41.9801 44.1084 41.5971C44.2135 41.1279 44.2811 40.5946 43.9283 40.1273C43.677 39.7937 43.4457 39.4602 43.0701 39.2522C42.8562 39.134 42.6698 38.9397 42.4431 38.8737C42.1781 38.7968 41.9743 38.4779 41.626 38.6419C41.5301 39.1404 41.6507 39.6545 41.4414 40.1575C41.3135 40.4654 41.2129 40.7751 40.9954 41.0281C40.8245 41.2269 40.6298 41.4047 40.447 41.5934C40.2112 41.8354 39.9717 42.058 39.661 42.2193C39.2643 42.4246 38.9207 42.7279 38.4783 42.8571C38.2663 42.9194 38.0597 43.0138 37.8678 43.1237C37.589 43.2822 37.292 43.3766 36.9858 43.4582C36.8889 43.4838 36.7966 43.526 36.7016 43.5581C36.5608 43.6048 36.4201 43.6543 36.2775 43.6928C36.176 43.7193 36.0261 43.6928 35.9759 43.7542C35.8324 43.9283 35.6532 43.8879 35.4778 43.8989C35.3717 43.9054 35.2292 43.8733 35.1661 43.9292C34.9193 44.1528 34.6278 44.0831 34.3481 44.0987C34.2576 44.1042 34.1324 44.0767 34.0821 44.1253C33.7787 44.4222 33.3976 44.2948 33.0493 44.336C32.8994 44.3544 32.7075 44.2985 32.6042 44.3736C32.3273 44.5734 32.0248 44.5175 31.7296 44.5321C31.4343 44.5486 31.1373 44.5367 30.8412 44.5367ZM20.7052 40.0412C20.7071 40.8155 20.676 41.4761 20.7281 42.1826C21.1092 42.0589 21.3231 42.4979 21.6868 42.3283C21.6868 41.6722 21.6868 41.0152 21.6868 40.3994C21.3468 40.2757 21.0589 40.1704 20.7052 40.0412ZM19.2182 39.2595C19.2182 39.9202 19.2173 40.5525 19.22 41.1848C19.22 41.2269 19.231 41.2929 19.2593 41.3085C19.5555 41.4716 19.8223 41.7052 20.2135 41.752C20.2135 41.061 20.2135 40.4132 20.2135 39.7892C19.8781 39.6096 19.5747 39.4483 19.2182 39.2595ZM24.9287 46.5765C24.9287 46.0844 24.9342 45.5694 24.9269 45.0544C24.9205 44.5889 24.6161 44.3452 24.1034 44.3919C24.1034 45.0407 24.1034 45.6904 24.1034 46.3795C24.4333 46.2658 24.5375 46.7698 24.9287 46.5765ZM24.9506 55.5035C24.9506 56.253 24.9506 56.9155 24.9506 57.6321C25.2513 57.4965 25.4003 57.9702 25.7211 57.7741C25.7211 57.1135 25.7211 56.4656 25.7211 55.8361C25.4661 55.7261 25.2413 55.629 24.9506 55.5035ZM18.392 49.3704C18.392 50.12 18.392 50.7852 18.392 51.4597C18.6506 51.5962 18.9011 51.7281 19.2164 51.8949C19.2164 51.2351 19.2209 50.6322 19.21 50.0302C19.2091 49.9614 19.1378 49.8753 19.0747 49.8295C18.8736 49.681 18.6607 49.5482 18.392 49.3704ZM24.2377 57.1602C24.2377 56.4968 24.2377 55.8352 24.2377 55.1296C23.9242 55.245 23.8146 54.7328 23.4444 54.9564C23.4444 55.443 23.4417 55.9424 23.4453 56.4418C23.449 56.8496 23.7561 57.1318 24.2377 57.1602ZM25.5685 45.0132C25.5685 45.5438 25.5666 46.0716 25.5694 46.5985C25.5712 47.1162 25.8509 47.3251 26.4148 47.1932C26.4148 46.6452 26.4203 46.0872 26.4121 45.5291C26.4084 45.3 26.2859 45.18 26.0392 45.1681C25.9057 45.1626 25.7769 45.0847 25.5685 45.0132ZM19.847 50.2537C19.847 50.7119 19.847 51.149 19.847 51.5861C19.847 52.1808 19.8479 52.179 20.432 52.3622C20.495 52.3824 20.5489 52.43 20.6157 52.4694C20.6431 52.4071 20.6751 52.3677 20.676 52.3274C20.6842 51.7831 20.6915 51.2379 20.687 50.6936C20.686 50.6175 20.6275 50.536 20.5791 50.4691C20.4137 50.2345 20.1788 50.1878 19.847 50.2537ZM18.7557 40.9557C18.7557 40.5396 18.7585 40.2263 18.7548 39.9138C18.7512 39.5665 18.8234 39.188 18.7082 38.8811C18.6122 38.6245 18.2933 38.4504 18.0712 38.2433C18.0565 38.2296 18.0191 38.2415 17.9396 38.2415C17.9396 38.5888 17.9569 38.9342 17.9359 39.2769C17.8948 39.944 18.1662 40.4572 18.7557 40.9557ZM39.948 40.8558C39.9873 40.8778 40.0266 40.8989 40.065 40.9208C40.3657 40.6258 40.7358 40.3729 40.7623 39.8854C40.7852 39.4749 40.7696 39.0625 40.7642 38.6511C40.7632 38.5723 40.7276 38.4944 40.7084 38.4147C40.5028 38.5576 40.3328 38.696 40.1445 38.8014C40.0065 38.8792 39.9462 38.9764 39.9471 39.1276C39.9489 39.7039 39.948 40.2803 39.948 40.8558ZM45.4272 43.1989C45.0169 43.5517 44.7217 43.8128 44.7911 44.3241C44.8414 44.698 44.7975 45.0838 44.8039 45.464C44.8057 45.5557 44.8377 45.6464 44.8597 45.7545C45.3029 45.475 45.4748 45.1177 45.4446 44.6357C45.4154 44.1913 45.4318 43.7432 45.4272 43.1989ZM17.7385 50.9025C17.7385 50.2354 17.7568 49.6471 17.7312 49.0607C17.7175 48.7317 17.4442 48.6163 17.1042 48.4925C17.1042 48.9635 17.1362 49.3851 17.096 49.7992C17.0475 50.2932 17.2696 50.6029 17.7385 50.9025ZM22.7772 56.3758C22.7772 55.7316 22.7653 55.1607 22.7836 54.5899C22.79 54.3855 22.7068 54.2545 22.5707 54.1409C22.4719 54.0584 22.3559 53.9961 22.2453 53.9237C22.0552 54.5642 22.0342 55.8755 22.7772 56.3758ZM44.7774 53.8742C44.3195 54.117 44.0718 54.4139 44.1605 54.917C44.1916 55.0938 44.1632 55.2808 44.166 55.4631C44.1696 55.7444 44.1769 56.0267 44.1842 56.3978C44.5507 56.0331 44.8012 55.7298 44.7984 55.2817C44.7966 54.8208 44.8286 54.358 44.7774 53.8742ZM22.811 43.9109C22.811 44.2517 22.8129 44.5807 22.811 44.9087C22.8083 45.3119 23.0532 45.5291 23.3859 45.7261C23.3859 45.0984 23.3859 44.5129 23.3859 43.9109C23.1949 43.9109 23.0331 43.9109 22.811 43.9109ZM39.1455 50.897C39.8237 50.3756 39.8173 49.8698 39.6519 48.9755C39.4828 48.9864 39.3091 48.9974 39.1026 49.0103C39.1026 49.5784 39.1016 50.1071 39.1044 50.6349C39.1044 50.7028 39.1254 50.7715 39.1455 50.897Z" fill="#FCEF4F"/>
<path d="M31.3886 37.3838C31.0797 37.228 30.7745 37.0631 30.461 36.9192C30.2553 36.8248 30.0424 36.7268 29.823 36.6883C29.6018 36.6498 29.3688 36.6791 29.1403 36.6837C28.9648 36.6874 28.7893 36.6525 28.6431 36.8257C28.5828 36.8972 28.4173 36.8844 28.2976 36.8981C27.8854 36.9449 27.4732 36.8752 27.0601 37.0722C26.8115 37.1914 26.4614 37.1006 26.1571 37.0997C25.8701 37.0988 25.5767 37.141 25.3208 36.9522C25.2769 36.9201 25.2047 36.9183 25.1453 36.9155C24.8464 36.9045 24.5604 36.9174 24.2853 36.7167C24.1418 36.6113 23.9041 36.6617 23.7232 36.5123C23.5523 36.3703 23.3027 36.3291 23.1026 36.2182C22.8001 36.0514 22.7041 35.7289 22.6127 35.4329C22.5451 35.2121 22.9253 34.6815 23.1739 34.5651C23.3969 34.4607 23.6473 34.2288 23.7817 33.9915C23.5559 33.9319 23.3101 33.8944 23.2223 33.5966C23.3713 33.471 23.4609 33.2392 23.7387 33.2914C23.9343 33.3281 24.1399 33.2245 24.331 33.4188C24.4644 33.5544 24.6965 33.5956 24.8876 33.6708C24.9406 33.6919 25.0137 33.7047 25.064 33.6854C25.3784 33.5681 25.6891 33.4408 26.0017 33.3171C26.0154 33.3116 26.03 33.3042 26.0456 33.3033C26.8617 33.2364 27.6587 32.9267 28.4923 33.0816C28.8277 33.1439 29.1138 33.3171 29.3578 33.5901C29.2664 33.7533 29.175 33.9164 29.0964 34.0566C28.9164 34.1399 28.7573 34.2224 28.591 34.2866C28.4813 34.3287 28.3634 34.3635 28.2464 34.3709C27.8232 34.3965 27.8223 34.3919 27.2612 34.6705C27.7949 34.895 28.3241 35.1177 28.7948 35.3156C29.0297 35.2716 29.2253 35.2221 29.4245 35.2001C29.6585 35.1745 29.8797 35.1919 30.1091 35.0462C30.2809 34.9372 30.5496 34.9766 30.7754 34.9592C31.1172 34.9326 31.4481 34.9582 31.7963 34.8226C32.0741 34.7145 32.4397 34.7053 32.7642 34.873C32.9159 34.9509 33.117 34.9408 33.2961 34.9555C33.563 34.9766 33.8171 34.9537 34.0666 35.1424C34.2658 35.2927 34.5556 35.3312 34.8106 35.3999C35.21 35.508 35.4448 35.8407 35.6752 36.122C35.804 36.2787 35.73 36.6223 35.7044 36.878C35.6925 36.9934 35.5957 37.1208 35.5033 37.2042C35.2438 37.4378 34.9668 37.6514 34.678 37.8887C34.9577 37.9959 35.38 38.0316 35.2547 38.5878C34.8169 38.5411 34.3545 38.7482 33.9304 38.4229C33.8801 38.3844 33.7814 38.3927 33.7083 38.4018C33.4615 38.4312 33.1965 38.3194 32.9726 38.5292C32.7825 38.707 32.4434 38.4651 32.277 38.7537C32.2651 38.7739 32.2222 38.7867 32.1948 38.7849C31.544 38.7345 30.96 39.1734 30.2937 39.0405C30.1182 39.0057 29.9263 39.0139 29.7472 39.0396C29.4145 39.0873 29.1522 38.948 28.9374 38.7335C28.8396 38.6355 28.6221 38.5338 28.7336 38.3404C28.8167 38.1966 28.952 38.0124 29.0918 37.9849C29.4684 37.9125 29.7855 37.6055 30.2005 37.7027C30.5496 37.4342 30.981 37.5496 31.3886 37.3838ZM31.1784 36.3373C31.5851 36.5389 31.8904 36.7139 32.2149 36.8404C32.3547 36.8945 32.5329 36.8496 32.7066 36.8496C32.7066 36.7286 32.7066 36.6415 32.7066 36.5673C32.256 36.2494 31.7771 36.2081 31.1784 36.3373ZM25.7568 35.2964C26.1927 35.7829 26.6908 35.5548 27.1652 35.5236C26.8681 35.3678 26.5163 35.3248 26.2622 35.1433C25.9816 34.9436 25.9039 35.081 25.7568 35.2964Z" fill="#FCEF4F"/>
</g>
<defs>
<clipPath id="clip0">
<rect width="205.5" height="60" fill="white"/>
</clipPath>
</defs>
</svg>
