<svg width="16" height="14" viewBox="0 0 16 14" fill="none" xmlns="http://www.w3.org/2000/svg">
<path d="M4.91888 13.1909C6.11956 13.1984 7.30979 12.971 8.42053 12.5221C9.53127 12.0732 10.5404 11.4116 11.3894 10.5757C12.2385 9.73987 12.9105 8.74636 13.3665 7.65283C13.8225 6.55931 14.0534 5.38753 14.0458 4.20546V3.79258C14.6682 3.34364 15.2069 2.79198 15.6381 2.16203C15.052 2.41438 14.4319 2.58174 13.797 2.65889C14.4701 2.26405 14.9752 1.64255 15.2187 0.909383C14.5914 1.27989 13.9035 1.54035 13.1857 1.67917C12.7023 1.17207 12.0626 0.835943 11.3657 0.722806C10.6687 0.609669 9.95324 0.725825 9.33006 1.0533C8.70688 1.38078 8.21069 1.90132 7.91827 2.53438C7.62585 3.16745 7.5535 3.87774 7.71241 4.55536C6.43722 4.49374 5.1895 4.16839 4.05051 3.60048C2.91153 3.03258 1.9068 2.23487 1.10177 1.25929C0.695839 1.95291 0.572799 2.77249 0.757565 3.55207C0.942331 4.33165 1.4211 5.01298 2.09692 5.45811C1.59836 5.43918 1.11134 5.30493 0.67528 5.06622V5.10121C0.67085 5.82609 0.918894 6.53057 1.37807 7.09724C1.83725 7.66391 2.47982 8.05853 3.1987 8.21534C2.73498 8.33813 2.24925 8.35725 1.77705 8.27132C1.98517 8.88952 2.38245 9.4292 2.9144 9.81634C3.44635 10.2035 4.08693 10.4191 4.74829 10.4337C3.61752 11.3298 2.21214 11.8231 0.760579 11.8333C0.506072 11.8261 0.252162 11.805 0 11.7703C1.46924 12.6919 3.17681 13.1778 4.91888 13.17" fill="#0041DB"/>
</svg>
